[api-updater (non-obsolete-error-filter)] 27/08/2021 20:00:06 : Starting C:/Users/HallE/Desktop/Dev/Unity/2020.3.6f1/Editor/Data/Tools/ScriptUpdater/APIUpdater.NonObsoleteApiUpdaterDetector.exe
[api-updater (non-obsolete-error-filter)] 
----------------------------------
jit/startup time      : 247,6602ms
moved types parse time: 55ms
candidates parse time : 1ms
C# parse time         : 277ms
candidates check time : 38ms
console write time    : 0ms

